<?xml version="1.0" encoding="utf-8"?>
<!-- Generator: Adobe Illustrator 25.3.1, SVG Export Plug-In . SVG Version: 6.00 Build 0)  -->
<svg version="1.1" id="Layer_1" xmlns="http://www.w3.org/2000/svg" xmlns:xlink="http://www.w3.org/1999/xlink" x="0px" y="0px"
	 viewBox="0 0 200 200" style="enable-background:new 0 0 200 200;" xml:space="preserve">
<style type="text/css">
	.st0{fill:#FFFFFF;}
	.st1{fill:url(#SVGID_1_);}
	.st2{fill:url(#SVGID_2_);}
	.st3{fill:url(#SVGID_3_);}
</style>
<path d="M100,200L100,200C44.8,200,0,155.2,0,100v0C0,44.8,44.8,0,100,0h0c55.2,0,100,44.8,100,100v0C200,155.2,155.2,200,100,200z"
	/>
<g id="Grid">
</g>
<g id="Design_1_">
	<rect x="133.1" y="72.1" class="st0" width="6.9" height="44.3"/>
	<g>
		
			<radialGradient id="SVGID_1_" cx="129.332" cy="-203.5398" r="25.5813" gradientTransform="matrix(1 0 0 -1 0 -100.7349)" gradientUnits="userSpaceOnUse">
			<stop  offset="0" style="stop-color:#C3C3C3"/>
			<stop  offset="0.3602" style="stop-color:#DDDDDD"/>
			<stop  offset="1" style="stop-color:#FFFFFF"/>
		</radialGradient>
		<path class="st1" d="M113.2,116.6c-4.5,0-8.7-1.8-11.8-4.9c-3.1-3.1-4.9-7.3-4.9-11.8h6.9c0,2.6,1,5.1,2.8,6.9
			c1.8,1.8,4.3,2.8,6.9,2.8c2.6,0,5.1-1,6.9-2.8l3.8-3.8l4.9,4.9l-3.8,3.8C121.9,115,117.7,116.6,113.2,116.6z"/>
		<path class="st0" d="M113.2,83.2c-4.5,0-8.7,1.8-11.8,4.9c-3.2,3.2-4.9,7.3-4.9,11.8v0.4l3.2,1.7l3.6-1.9v-0.3
			c0-2.6,1-5.1,2.8-6.9c1.8-1.8,4.3-2.8,6.9-2.8c5.4,0,9.8,4.3,9.8,9.8v4.2v9.5v2.8h6.9V100C130,90.8,122.5,83.2,113.2,83.2z"/>
	</g>
	<g>
		
			<radialGradient id="SVGID_2_" cx="183.4167" cy="-208.3934" r="25.5813" gradientTransform="matrix(1 0 0 -1 0 -100.7349)" gradientUnits="userSpaceOnUse">
			<stop  offset="0" style="stop-color:#C3C3C3"/>
			<stop  offset="0.3602" style="stop-color:#DDDDDD"/>
			<stop  offset="1" style="stop-color:#FFFFFF"/>
		</radialGradient>
		<path class="st2" d="M159.4,116.6c-4.5,0-8.7-1.8-11.8-4.9c-3.1-3.1-4.9-7.3-4.9-11.8h6.9c0,2.6,1,5.1,2.8,6.9
			c1.8,1.8,4.3,2.8,6.9,2.8c2.6,0,5.1-1,6.9-2.8l3.8-3.8l4.9,4.9l-3.8,3.8C168,115,163.9,116.6,159.4,116.6z"/>
		<path class="st0" d="M159.4,83.2c-4.5,0-8.7,1.8-11.8,4.9c-3.2,3.2-4.9,7.3-4.9,11.8v0.4l3.2,1.7l3.6-1.9v-0.3
			c0-2.6,1-5.1,2.8-6.9c1.8-1.8,4.3-2.8,6.9-2.8c5.4,0,9.8,4.3,9.8,9.8v4.2v9.5v2.8h6.9V100C176,90.8,168.6,83.2,159.4,83.2z"/>
	</g>
	<g>
		<path class="st0" d="M40.7,116.6c-9.2,0-16.8-7.4-16.8-16.6s7.5-16.8,16.8-16.8s16.8,7.5,16.8,16.8S49.9,116.6,40.7,116.6z
			 M40.7,90.2c-5.4,0-9.8,4.3-9.8,9.8s4.3,9.8,9.8,9.8s9.8-4.3,9.8-9.8S46.1,90.2,40.7,90.2z"/>
		
			<radialGradient id="SVGID_3_" cx="60.5706" cy="-204.1469" r="22.3254" gradientTransform="matrix(1 0 0 -1 0 -100.7349)" gradientUnits="userSpaceOnUse">
			<stop  offset="4.281818e-03" style="stop-color:#C8C8C8"/>
			<stop  offset="0.25" style="stop-color:#D1D1D1"/>
			<stop  offset="0.5" style="stop-color:#D4D4D4"/>
			<stop  offset="0.75" style="stop-color:#E6E6E6"/>
			<stop  offset="1" style="stop-color:#FFFFFF"/>
		</radialGradient>
		<path class="st3" d="M78.2,83.2v6.9c5.4,0,9.8,4.3,9.8,9.8s-4.3,9.8-9.8,9.8c-2.6,0-5.1-1-6.9-2.8L52.5,88.1
			c-3.2-3.2-7.3-4.9-11.8-4.9v6.9c2.6,0,5.1,1,6.9,2.8l18.8,18.8c3.2,3.2,7.3,4.9,11.8,4.9c9.2,0,16.8-7.5,16.8-16.8
			S87.4,83.2,78.2,83.2z"/>
		<path class="st0" d="M78.2,83.2c-9.2,0-16.8,7.5-16.8,16.8v27.9h6.9V100c0-5.4,4.3-9.8,9.8-9.8c0.1,0,0.3,0,0.4,0l0.3-6.9
			C78.6,83.2,78.4,83.2,78.2,83.2z"/>
	</g>
</g>
</svg>
